…
## Problem 1

**How many aisles are there?**

``` r
instacart%>%
  group_by(aisle) %>%
  summarize(n_of_aisle = n())
```

    ## # A tibble: 134 x 2
    ##    aisle                  n_of_aisle
    ##    <chr>                       <int>
    ##  1 air fresheners candles       1067
    ##  2 asian foods                  7007
    ##  3 baby accessories              306
    ##  4 baby bath body care           328
    ##  5 baby food formula           13198
    ##  6 bakery desserts              1501
    ##  7 baking ingredients          13088
    ##  8 baking supplies decor        1094
    ##  9 beauty                        287
    ## 10 beers coolers                1839
    ## # … with 124 more rows
…
    ## Parsed with column specification:
    ## cols(
    ##   .default = col_double(),
    ##   day = col_character()
    ## )

    ## See spec(...) for full column specifications.

``` r
mutate(accel_data, activity = as.numeric(activity))
```

    ## # A tibble: 50,400 x 6
    ##     week day_id day    type    activity count
    ##    <dbl>  <dbl> <fct>  <chr>      <dbl> <dbl>
    ##  1     1      1 Friday weekday        1  88.4
    ##  2     1      1 Friday weekday        2  82.2
    ##  3     1      1 Friday weekday        3  64.4
    ##  4     1      1 Friday weekday        4  70.0
    ##  5     1      1 Friday weekday        5  75.0
    ##  6     1      1 Friday weekday        6  66.3
    ##  7     1      1 Friday weekday        7  53.8
    ##  8     1      1 Friday weekday        8  47.8
    ##  9     1      1 Friday weekday        9  55.5
    ## 10     1      1 Friday weekday       10  43.0
    ## # … with 50,390 more rows
…
